<?xml version="1.0" encoding="utf-8"?>
<!-- Generator: Adobe Illustrator 16.0.0, SVG Export Plug-In . SVG Version: 6.00 Build 0)  -->
<!DOCTYPE svg PUBLIC "-//W3C//DTD SVG 1.1//EN" "http://www.w3.org/Graphics/SVG/1.1/DTD/svg11.dtd">
<svg version="1.1" id="Layer_1" xmlns="http://www.w3.org/2000/svg" xmlns:xlink="http://www.w3.org/1999/xlink" x="0px" y="0px"
	  viewBox="0 0 120 120" enable-background="new 0 0 120 120" xml:space="preserve">
<g>
	<g>
		
			<path fill="none" stroke="#F8FBF7" stroke-width="2.5" stroke-linecap="round" stroke-linejoin="round" stroke-miterlimit="10" d="
			M71.184,37.172c-0.714-1.498-1.52-2.942-2.42-4.315c-4.215-6.428-10.894-9.164-18.292-6.928c-4.455,1.348-9.31,1.244-13.925,2.199
			c-5.265,1.09-10.43,2.598-15.657,3.844c-3.465,0.826-6.348,1.435-8.925,4.062c-2.416,2.463-3.728,5.764-4.351,9.11
			c-4.554,24.499,17.168,55.651,37.481,43.014c1.7-1.059,3.736-1.467,5.713-1.148c2.787,0.449,5.356,0.329,7.698-0.268"/>
		
			<path fill="none" stroke="#F8FBF7" stroke-width="2.5" stroke-linecap="round" stroke-linejoin="round" stroke-miterlimit="10" d="
			M71.184,37.172"/>
		
			<path fill="none" stroke="#F8FBF7" stroke-width="2.5" stroke-linecap="round" stroke-linejoin="round" stroke-miterlimit="10" d="
			M58.507,86.742"/>
		<g>
			
				<path fill="none" stroke="#F8FBF7" stroke-width="2.5" stroke-linecap="round" stroke-linejoin="round" stroke-miterlimit="10" d="
				M36.952,32.845c-0.75-2.373-2.126-4.655-3.669-6.586c-3.876-4.849-9.614-7.112-15.773-6.429
				c-0.555,0.062-1.654,0.025-2.121,0.347c-0.52,0.357-0.247,0.9-0.069,1.391c1.236,3.418,3.262,6.734,6.013,9.135
				C25.776,34.582,31.579,34.89,36.952,32.845z"/>
			
				<path fill="none" stroke="#F8FBF7" stroke-width="2.5" stroke-linecap="round" stroke-linejoin="round" stroke-miterlimit="10" d="
				M15.144,20.459c2.012,0.896,3.892,1.869,5.718,3.102c0.912,0.616,1.77,1.311,2.641,1.983c2.849,2.199,5.865,4.181,9.016,5.92
				c1.234,0.682,2.564,1.344,3.973,1.281"/>
			
				<path fill="none" stroke="#F8FBF7" stroke-width="2.5" stroke-linecap="round" stroke-linejoin="round" stroke-miterlimit="10" d="
				M19.538,19.754c1.003,1.196,1.675,2.667,1.924,4.208"/>
			
				<path fill="none" stroke="#F8FBF7" stroke-width="2.5" stroke-linecap="round" stroke-linejoin="round" stroke-miterlimit="10" d="
				M23.705,20.331c1.021,2.166,1.746,4.471,2.149,6.831"/>
			
				<path fill="none" stroke="#F8FBF7" stroke-width="2.5" stroke-linecap="round" stroke-linejoin="round" stroke-miterlimit="10" d="
				M28.533,22.286c0.822,2.478,1.289,5.072,1.382,7.682"/>
			
				<path fill="none" stroke="#F8FBF7" stroke-width="2.5" stroke-linecap="round" stroke-linejoin="round" stroke-miterlimit="10" d="
				M33.624,26.68c0.651,1.701,0.718,3.621,0.186,5.362"/>
			
				<path fill="none" stroke="#F8FBF7" stroke-width="2.5" stroke-linecap="round" stroke-linejoin="round" stroke-miterlimit="10" d="
				M17.517,25.992c0.764-0.06,1.534-0.136,2.257-0.39c0.722-0.254,1.4-0.705,1.786-1.366"/>
			
				<path fill="none" stroke="#F8FBF7" stroke-width="2.5" stroke-linecap="round" stroke-linejoin="round" stroke-miterlimit="10" d="
				M20.255,29.711c2.09-0.188,4.134-0.859,5.926-1.948"/>
			
				<path fill="none" stroke="#F8FBF7" stroke-width="2.5" stroke-linecap="round" stroke-linejoin="round" stroke-miterlimit="10" d="
				M24.497,32.749c2.056-0.29,4.037-1.097,5.711-2.325"/>
			
				<path fill="none" stroke="#F8FBF7" stroke-width="2.5" stroke-linecap="round" stroke-linejoin="round" stroke-miterlimit="10" d="
				M30.566,34.087c1.221-0.209,2.375-0.799,3.259-1.667"/>
		</g>
		
			<path fill="#27351A" stroke="#D4B083" stroke-width="2.5" stroke-linecap="round" stroke-linejoin="round" stroke-miterlimit="10" d="
			M41.162,20.276c-3.381,4.852-3.73,11.133-3.515,15.2c0.062,1.069,0.163,1.977,0.252,2.673c-0.367,0.003-0.746-0.003-1.118-0.03
			c-0.146-0.827-0.253-1.663-0.316-2.486c-0.72-8.454,2.28-16.217,2.28-16.217L41.162,20.276z"/>
		
			<path fill="#B0D3F0" stroke="#F8FBF7" stroke-width="2.5" stroke-linecap="round" stroke-linejoin="round" stroke-miterlimit="10" d="
			M39.99,18.967c0.502,0.09,0.95,0.441,1.156,0.907c0.056,0.128,0.093,0.283,0.02,0.401c-0.035,0.058-0.092,0.098-0.148,0.134
			c-0.477,0.307-0.965,0.361-1.499,0.16c-0.462-0.175-0.891-0.622-0.771-1.151C38.852,18.961,39.625,18.903,39.99,18.967z"/>
		
			<path fill="none" stroke="#F8FBF7" stroke-width="2.5" stroke-linecap="round" stroke-linejoin="round" stroke-miterlimit="10" d="
			M49.734,33.956c-1.801,0.882-3.62,1.727-5.473,2.507c-1.644,0.708-3.325,1.372-5.096,1.596c-0.418,0.053-0.84,0.087-1.267,0.091
			c-0.367,0.003-0.746-0.003-1.118-0.03c-2.688-0.174-5.357-1.024-8.063-1.297c-0.385-0.035-0.757-0.062-1.147-0.075"/>
	</g>
	<g>
		
			<path fill="none" stroke="#F8FBF7" stroke-width="2.5" stroke-linecap="round" stroke-linejoin="round" stroke-miterlimit="10" d="
			M112.737,77.184c-2.74,8.16-7.61,15.291-13.431,19.07c0,0.01-0.01,0.01-0.01,0.01c-5.31,3.451-11.4,4.121-17.4,0.271
			c-1.51-0.961-3.299-1.33-5.039-1.01c-20.75,3.738-28.11-30.611-16.26-50.051c2.709-4.439,6.939-7.649,12.329-7.3
			c2.16,0.141,4.271,0.8,6.25,1.681c2.641,1.189,4.07,3.289,6.421,4.89c1.39,0.95,3.049,1.59,4.72,1.47
			c1.84-0.13,3.479-1.14,5.229-1.7c3.76-1.21,8.88-0.729,12.33,1.261c3.86,2.21,5.85,6.31,6.641,10.55
			C115.787,63.125,114.977,70.494,112.737,77.184z"/>
		<g>
			
				<path fill="#D4B083" stroke="#D4B083" stroke-width="2.5" stroke-linecap="round" stroke-linejoin="round" stroke-miterlimit="10" d="
				M88.612,35.918l2.309-0.114c0,0,0.253,10.044-4.712,17.981l-0.891-0.25C85.318,53.536,90.865,44.141,88.612,35.918z"/>
			
				<path fill="#B0D3F0" stroke="#F8FBF7" stroke-width="2.5" stroke-linecap="round" stroke-linejoin="round" stroke-miterlimit="10" d="
				M90.005,35.087c-0.452-0.053-0.938,0.136-1.255,0.487c-0.086,0.096-0.165,0.222-0.138,0.344c0.013,0.059,0.048,0.108,0.085,0.154
				c0.311,0.392,0.708,0.566,1.222,0.53c0.445-0.03,0.944-0.308,1.002-0.799C90.972,35.379,90.334,35.126,90.005,35.087z"/>
		</g>
		
			<path fill="none" stroke="#F8FBF7" stroke-width="2.5" stroke-linecap="round" stroke-linejoin="round" stroke-miterlimit="10" d="
			M112.737,77.184c-2.74,8.16-7.61,15.291-13.431,19.07c0,0.01-0.01,0.01-0.01,0.01c-4.33,1.811-9.26,2.031-13.96,0.061
			c-2.02-0.84-3.94-2-6.069-2.49c-2.881-0.66-5.9-0.059-8.82-0.439c-7.4-0.949-12.87-9.18-14.25-15.971
			c-0.5-2.439-1.227-4.906-1.267-7.396c-0.16-8.26,1.087-16.752,5.477-24.002c1.51-2.5,4.36-3.94,7.229-4.49
			c3.9-0.75,8.07-0.04,11.5,1.96c3.431,2,4.587,9.251,5.856,13.012c4.54-3.841,12.444-9.542,18.204-8.033
			c5.75,1.5,10.609,6.381,11.65,12.231C115.637,65.184,114.164,73.07,112.737,77.184z"/>
		
			<path fill="none" stroke="#F8FBF7" stroke-width="2.5" stroke-linecap="round" stroke-linejoin="round" stroke-miterlimit="10" d="
			M80.191,68.25c-1.174,3.699-1.466,7.604-1.349,11.465c0.06,1.959,0.254,3.902,0.433,5.852c0.107,1.168,0.46,3.504,1.968,2.533
			c1.982-1.277,3.11-6.08,3.71-8.215c1.752-6.242,1.898-12.812,1.853-19.252c-0.006-0.833,0.359-3.767-0.644-4.082
			c-1.286-0.402-1.758,2.043-2.103,2.811C82.738,62.311,81.173,65.16,80.191,68.25z"/>
		
			<path fill="#112012" stroke="#F8FBF7" stroke-width="2.5" stroke-linecap="round" stroke-linejoin="round" stroke-miterlimit="10" d="
			M78.532,73.918c-0.363,0.291-0.75,0.568-1.014,0.953c-0.251,0.363-0.375,0.812-0.348,1.254c0.006,0.104,0.022,0.211,0.083,0.297
			c0.127,0.18,0.391,0.184,0.607,0.148c0.925-0.148,1.78-0.688,2.312-1.459c0.311-0.451,1.049-2.057,0.469-2.529
			C80.039,72.092,78.93,73.6,78.532,73.918z"/>
		
			<path fill="#112012" stroke="#F8FBF7" stroke-width="2.5" stroke-linecap="round" stroke-linejoin="round" stroke-miterlimit="10" d="
			M84.91,75.047c0.11,0.67,0.257,1.359,0.652,1.912c0.145,0.203,0.363,0.398,0.609,0.363c0.256-0.037,0.409-0.299,0.502-0.539
			c0.428-1.115,0.339-2.387-0.099-3.498c-0.161-0.41-0.397-0.83-0.8-1.006C84.114,71.555,84.812,74.447,84.91,75.047z"/>
	</g>
</g>
</svg>
