<?xml version="1.0" encoding="utf-8"?>
<!--Generator: Adobe Illustrator 16.0.0, SVG Export Plug-In . SVG Version: 6.00 Build 0)-->
<!DOCTYPE svg PUBLIC "-//W3C//DTD SVG 1.1//EN" "http://www.w3.org/Graphics/SVG/1.1/DTD/svg11.dtd">
<svg xmlns="http://www.w3.org/2000/svg" xmlns:xlink="http://www.w3.org/1999/xlink" width="212px" height="60px" x="0px" y="0px" enable-background="new 0 0 212 60" version="1.1" viewBox="0 0 212 60" xml:space="preserve">
    <g id="Layer_1">
        <g id="Layer_1_1_">
            <g id="Blockchain_Certified_Penta">
                <g>
                    <path fill="#3D2866" d="M58.752,5.25c0.171,0,0.345,0,0.518,0c0.147,0.023,0.296,0.047,0.443,0.069
					c1.029,0.157,1.905,0.605,2.667,1.319c1.157,1.083,2.559,1.729,4.062,2.162c1.144,0.331,2.308,0.495,3.501,0.397
					c0.472-0.039,0.95-0.083,1.419-0.045c2.028,0.167,3.811,1.748,4.201,3.755c0.249,1.275,0.748,2.433,1.456,3.506
					c0.938,1.421,2.092,2.609,3.599,3.455c1.967,1.104,2.861,3.511,2.144,5.652c-0.157,0.471-0.394,0.913-0.553,1.383
					c-0.446,1.321-0.576,2.684-0.49,4.07c0.071,1.182,0.29,2.329,0.803,3.405c0.371,0.78,0.54,1.593,0.464,2.452
					c-0.148,1.656-0.907,2.959-2.349,3.792c-1.132,0.653-2.097,1.476-2.904,2.489c-1.06,1.328-1.836,2.789-2.173,4.481
					c-0.436,2.201-2.428,3.791-4.668,3.781c-0.411,0-0.818-0.062-1.23-0.084c-1.199-0.062-2.368,0.137-3.509,0.498
					c-1.475,0.466-2.803,1.172-3.957,2.229c-1.797,1.646-4.609,1.633-6.406-0.021c-0.911-0.837-1.939-1.465-3.086-1.91
					c-1.562-0.608-3.17-0.938-4.861-0.762c-0.447,0.047-0.909,0.055-1.355,0.001c-1.916-0.227-3.578-1.694-3.995-3.576
					c-0.261-1.184-0.651-2.299-1.288-3.326c-0.977-1.572-2.197-2.889-3.838-3.808c-1.848-1.038-2.761-3.289-2.203-5.337
					c0.136-0.502,0.382-0.978,0.564-1.469c0.486-1.312,0.626-2.672,0.574-4.062c-0.047-1.271-0.276-2.503-0.827-3.661
					c-0.24-0.506-0.405-1.033-0.443-1.592c-0.128-1.996,0.609-3.587,2.336-4.611c1.293-0.767,2.365-1.734,3.246-2.935
					c0.869-1.187,1.52-2.472,1.811-3.932c0.404-2.033,1.901-3.474,3.952-3.848c0.554-0.101,1.103-0.049,1.657,0.01
					c1.222,0.131,2.415-0.058,3.585-0.4c1.566-0.461,3.001-1.167,4.198-2.312c0.558-0.531,1.232-0.874,1.983-1.052
					C58.112,5.35,58.433,5.308,58.752,5.25z M47.995,40.527c0.006,0,0.013,0,0.019,0c0,0.217-0.013,0.433,0.002,0.646
					c0.125,1.716,1.505,2.793,3.178,2.431c0.649-0.14,1.279-0.391,1.896-0.644c1.613-0.659,3.242-1.22,5.014-1.286
					c1.935-0.072,3.823,0.085,5.636,0.831c0.879,0.361,1.767,0.706,2.665,1.009c0.762,0.258,1.541,0.256,2.264-0.147
					c0.94-0.522,1.312-1.396,1.331-2.418c0.02-0.79-0.029-1.584-0.098-2.374c-0.113-1.317-0.068-2.618,0.234-3.907
					c0.42-1.769,1.042-3.451,2.123-4.928c0.587-0.801,1.255-1.542,1.87-2.324c0.273-0.351,0.548-0.713,0.742-1.108
					c0.472-0.972,0.447-1.924-0.269-2.79c-0.361-0.438-0.832-0.739-1.369-0.913c-0.564-0.185-1.145-0.332-1.722-0.482
					c-1.22-0.321-2.445-0.608-3.566-1.222c-1.794-0.986-3.411-2.192-4.631-3.858c-0.652-0.895-1.207-1.86-1.824-2.783
					c-0.19-0.285-0.41-0.559-0.656-0.8c-0.879-0.867-2.035-1.035-3.048-0.462c-0.44,0.249-0.805,0.589-1.09,1.002
					c-0.34,0.492-0.675,0.99-0.979,1.504c-0.911,1.553-2.032,2.917-3.483,3.999c-1.292,0.963-2.655,1.784-4.221,2.22
					c-0.784,0.217-1.572,0.419-2.361,0.617c-0.666,0.169-1.32,0.363-1.866,0.812c-0.705,0.581-1.049,1.316-0.93,2.244
					c0.086,0.673,0.396,1.244,0.812,1.763c0.388,0.484,0.771,0.974,1.179,1.439c1.026,1.162,1.832,2.456,2.374,3.913
					c0.584,1.571,0.991,3.18,0.947,4.867C48.142,38.43,48.055,39.479,47.995,40.527z"/>
                </g>
            </g>
        </g>
        <g id="Layer_2">
            <path id="checkmark" fill="none" stroke="#77C44C" stroke-linecap="round" stroke-linejoin="round" stroke-width="6.945" d="M49.705,27.208l9.26,9.259l17.131-22.223"/>
        </g>
    </g>
    <g id="Layer_2_1_">
        <text transform="matrix(1 0 0 1 95.8335 25.3555)">
            <tspan x="0" y="0" fill="#3D2866" font-family="OpenSans-SemiboldItalic" font-size="18">Blockchain</tspan><tspan x="0" y="18" fill="#3D2866" font-family="'OpenSans-SemiboldItalic'" font-size="18">Certified</tspan>
        </text>
    </g>
</svg>
