<?xml version="1.0" encoding="utf-8"?>
<!--Generator: Adobe Illustrator 16.0.0, SVG Export Plug-In . SVG Version: 6.00 Build 0)-->
<!DOCTYPE svg PUBLIC "-//W3C//DTD SVG 1.0//EN" "http://www.w3.org/TR/2001/REC-SVG-20010904/DTD/svg10.dtd">
<svg xmlns="http://www.w3.org/2000/svg" xmlns:xlink="http://www.w3.org/1999/xlink" id="Layer_1" x="0px" y="0px" enable-background="new 0 0 320 85" version="1.0" viewBox="0 0 320 85" xml:space="preserve">
    <g>
        <path fill="55853D" stroke="#F8FCF7" stroke-miterlimit="10" stroke-width="1.48324" d="M44.85742,43"/>
    </g>
    <g>
            <path fill="#55853D" d="M137.98291,57.125c0,0,0.43555,5.79395,0.95996,12.875c0.51611,7.08105,9.56055,12.81836,20.10791,12.75
			c10.54883-0.06836,19.77344-5.8623,20.50391-12.875c0.73633-7.0127,1.34375-12.75,1.34375-12.75"/>
            <path fill="#3C5D2B" fill-opacity="0.45" stroke="#F8FCF7" stroke-miterlimit="10" stroke-width="1.87618" d="M181,62.3623
			C181,73.71289,171.71289,83,160.3623,83h-2.72461C146.28711,83,137,73.71289,137,62.3623V23.6377
			C137,12.28711,146.28711,3,157.6377,3h2.72461C171.71289,3,181,12.28711,181,23.6377V62.3623z"/>
        <text fill="#F8FCF7" font-family="sans-serif" font-size="11" transform="matrix(0.88 0 0 1 150.47168 23.1582)">
            Fat
        </text>
        <text fill="#F8FCF7" font-family="sans-serif" font-size="16" transform="matrix(0.88 0 0 1 143.76318 45.4668)">
            0.2g
        </text>
        <text fill="#F1F2F2" font-family="sans-serif" font-size="14" font-weight="bolder" transform="matrix(0.88 0 0 1 148.56152 72.41992)">
            0%
        </text>
        
    </g>
    <g>
            <path fill="#55853D" d="M272.33203,57.125c0,0,0.4502,5.79395,0.99414,12.875c0.53418,7.08105,9.88672,12.81836,20.79297,12.75
			c10.90723-0.06836,20.44531-5.8623,21.2002-12.875c0.76172-7.0127,1.38965-12.75,1.38965-12.75"/>
            <path fill="#3C5D2B" fill-opacity="0.45"  stroke="#F8FCF7" stroke-miterlimit="10" stroke-width="1.87618" d="M316.33203,62.86328
			c0,11.34961-9.28711,20.63672-20.6377,20.63672h-2.72461c-11.35059,0-20.6377-9.28711-20.6377-20.63672V24.1377
			c0-11.35059,9.28711-20.6377,20.6377-20.6377h2.72461c11.35059,0,20.6377,9.28711,20.6377,20.6377V62.86328z"/>
        <text fill="#F8FCF7" font-family="sans-serif" font-size="11" transform="matrix(0.88 0 0 1 285.55371 23.625)">
            Salt
        </text>
        <text fill="#F8FCF7" font-family="sans-serif" font-size="16" transform="matrix(0.88 0 0 1 276.08008 45.93359)">
            ~ 0g
        </text>
        <text fill="#F1F2F2" font-family="sans-serif" font-size="14" font-weight="bolder" transform="matrix(0.88 0 0 1 284.99023 72.88672)">
            0%
        </text>
        
    </g>
    <g>
            <path fill="#55853D" d="M227.61914,57.125c0,0,0.44043,5.79395,0.97949,12.875S238.5,82.81836,249.4043,82.75
			c10.90527-0.06836,20.16699-5.8623,20.58203-12.875c0.41406-7.0127,0.75391-12.75,0.75391-12.75"/>
            <path fill="#3C5D2B" fill-opacity="0.45"  stroke="#F8FCF7" stroke-miterlimit="10" stroke-width="1.87618" d="M271.17871,62.8623
			c0,11.35059-9.28711,20.6377-20.6377,20.6377h-2.72461c-11.35059,0-20.6377-9.28711-20.6377-20.6377V24.1377
			c0-11.35059,9.28711-20.6377,20.6377-20.6377h2.72461c11.35059,0,20.6377,9.28711,20.6377,20.6377V62.8623z"/>
        <text fill="#F8FCF7" font-family="sans-serif" font-size="11" transform="matrix(0.88 0 0 1 233.84375 23.625)">
            Protein
        </text>
        <text fill="#F8FCF7" font-family="sans-serif" font-size="16" transform="matrix(0.88 0 0 1 235.47656 45.93359)">
            0.3g
        </text>
        <text fill="#F1F2F2" font-family="sans-serif" font-size="14" font-weight="bolder" transform="matrix(0.88 0 0 1 240.27539 72.88672)">
            0%
        </text>
    </g>
    <g>
            <path fill="#ffaa00" d="M92.26074,56.92871c0,0,0.79492,5.88184,1.74707,13.07129
			c0.93213,7.18945,10.1626,13.01367,20.53369,12.94336c10.37646-0.06934,19.48242-5.95215,20.25537-13.07031
			c0.79541-7.11914,1.46387-12.94434,1.46387-12.94434"/>
            <path fill="#3C5D2B" fill-opacity="0.45"  stroke="#F8FCF7" stroke-miterlimit="10" stroke-width="1.87618" d="M136.26074,62.3623
			c0,11.35059-9.28711,20.6377-20.6377,20.6377h-2.72461c-11.35059,0-20.6377-9.28711-20.6377-20.6377V23.6377
			C92.26074,12.28711,101.54785,3,112.89844,3h2.72461c11.35059,0,20.6377,9.28711,20.6377,20.6377V62.3623z"/>
        <text fill="#F8FCF7" font-family="sans-serif" font-size="11" transform="matrix(0.97778 0 0 1 100.39844 23.625)">
            Sugar
        </text>
        <text fill="#F8FCF7" font-family="sans-serif" font-size="16" transform="matrix(0.97778 0 0 1 101.69775 45.93359)">
            10g
        </text>
        <text fill="#F1F2F2" font-family="sans-serif" font-size="14" font-weight="bolder" transform="matrix(0.97778 0 0 1 101.05029 72.88672)">
            18%
        </text>
        
    </g>
    <g>
            <path fill="#55853D" d="M2.04395,57.125c0,0,0.6709,5.62891,1.4751,12.50391c0.78516,6.87207,9.97314,12.32715,20.43701,12.12598
			c10.4668-0.2002,19.70459-5.82715,20.53809-12.50098c0.84668-6.67188,1.5498-12.12891,1.5498-12.12891"/>
            <path fill="#3C5D2B" fill-opacity="0.45"  stroke="#F8FCF7" stroke-miterlimit="10" stroke-width="1.87617" d="M46,61.71777
			c0,11.35059-9.28711,20.6377-20.6377,20.6377H22.6377C11.28711,82.35547,2,73.06836,2,61.71777V22.99365
			c0-11.35059,9.28711-20.6377,20.6377-20.6377h2.72461C36.71289,2.35596,46,11.64307,46,22.99365V61.71777z"/>
        <text fill="#F8FCF7" font-family="sans-serif" font-size="11" transform="matrix(0.97778 0 0 1 5.95898 23.625)">
            Energy
        </text>
        <text fill="#F8FCF7" font-family="sans-serif" font-size="12" transform="matrix(0.97778 0 0 1 8.97314 37.93359)">
            52cal
        </text>
        <text fill="#F8FCF7" font-family="sans-serif" font-size="14" font-weight="bolder" transform="matrix(0.97778 0 0 1 13.10547 72.88672)">
            3%
        </text>
        <text fill="#F8FCF7" font-family="sans-serif" font-size="12" transform="matrix(0.97778 0 0 1 8.97607 51.18359)">
            0.2kJ
        </text>
        
    </g>
    
    <g>
            <path fill="#55853D" d="M47.9165,57.05762c0,0,0.44824,5.82031,0.98828,12.9248
			c0.53223,7.09277,9.85205,12.50977,20.71924,12.04883c10.86816-0.45801,20.34814-6.27344,21.06934-12.91602
			c0.72803-6.63574,1.32812-12.05762,1.32812-12.05762"/>
            <path fill="#3C5D2B" fill-opacity="0.45"  stroke="#F8FCF7" stroke-miterlimit="10" stroke-width="1.87618" d="M91.51074,62.3623
			C91.51074,73.71289,82.22363,83,70.87305,83h-2.72461c-11.35059,0-20.6377-9.28711-20.6377-20.6377v-38.7251
			c0-11.35059,9.28711-20.6377,20.6377-20.6377h2.72461c11.35059,0,20.6377,9.28711,20.6377,20.6377V62.3623z"/>
        <text fill="#F8FCF7" font-family="sans-serif" font-size="11" transform="matrix(0.97778 0 0 1 57.78467 23.625)">
            Fiber
        </text>
        <text fill="#F8FCF7" font-family="sans-serif" font-size="16" transform="matrix(0.97778 0 0 1 54.81299 45.93359)">
            2.4g
        </text>
        <text fill="#F1F2F2" font-family="sans-serif" font-size="14" font-weight="bolder" transform="matrix(0.97778 0 0 1 60.14453 72.88672)">
            9%
        </text>
    </g>
    <g>
            <path fill="#55853D" d="M182.79688,57.1875c0,0,0.43652,5.76562,0.96973,12.8125s9.80078,12.75684,20.59473,12.6875
			c10.79297-0.06836,19.95996-5.83398,20.37109-12.8125c0.41016-6.97754,0.74609-12.6875,0.74609-12.6875"/>
            <path fill="#3C5D2B" fill-opacity="0.45"  stroke="#F8FCF7" stroke-miterlimit="10" stroke-width="1.87617" d="M226.35742,62.3623
			c0,11.35059-9.28711,20.6377-20.6377,20.6377h-2.72461c-11.35059,0-20.6377-9.28711-20.6377-20.6377V23.6377
			c0-11.35059,9.28711-20.6377,20.6377-20.6377h2.72461c11.35059,0,20.6377,9.28711,20.6377,20.6377V62.3623z"/>
        <text fill="#F8FCF7" font-family="sans-serif" font-size="11" transform="matrix(0.88 0 0 1 191.44629 23.625)">
            Carbs
        </text>
        <text fill="#F8FCF7" font-family="sans-serif" font-size="16" transform="matrix(0.88 0 0 1 186.73926 45.93359)">
            13.8g
        </text>
        <text fill="#F1F2F2" font-family="sans-serif" font-size="14" font-weight="bolder" transform="matrix(0.88 0 0 1 195.45312 72.88672)">
            4%
        </text>
    </g>
</svg>
